<?xml version="1.0" standalone="no"?>
<!DOCTYPE svg PUBLIC "-//W3C//DTD SVG 20010904//EN"
 "http://www.w3.org/TR/2001/REC-SVG-20010904/DTD/svg10.dtd">
<svg version="1.0" xmlns="http://www.w3.org/2000/svg"
 width="700.000000pt" height="700.000000pt" viewBox="0 0 700.000000 700.000000"
 preserveAspectRatio="xMidYMid meet">
<metadata>
Created by potrace 1.14, written by Peter Selinger 2001-2017
</metadata>
<g transform="translate(0.000000,700.000000) scale(0.100000,-0.100000)"
fill="#000000" stroke="none">
<path d="M3276 6803 c-1 -1 -33 -5 -71 -8 -39 -3 -81 -8 -95 -10 -14 -3 -43
-7 -65 -10 -22 -3 -51 -8 -65 -10 -14 -3 -43 -8 -65 -11 -22 -3 -87 -17 -145
-30 -977 -227 -1806 -888 -2237 -1784 -41 -85 -78 -163 -84 -172 -5 -10 -9
-23 -9 -30 0 -7 -7 -25 -14 -40 -19 -36 -79 -213 -110 -324 -77 -277 -119
-587 -119 -884 -1 -99 11 -311 18 -351 2 -10 7 -49 10 -86 4 -37 9 -70 10 -73
2 -3 6 -26 10 -50 3 -25 8 -52 10 -60 2 -8 7 -31 10 -50 11 -66 74 -295 110
-400 64 -184 203 -492 259 -572 15 -21 17 -19 42 27 6 11 55 97 109 190 54 94
106 184 115 200 25 44 505 876 727 1260 105 182 201 348 213 370 35 63 41 68
55 48 7 -10 21 -34 31 -53 11 -19 27 -46 35 -60 9 -14 110 -185 224 -380 308
-527 651 -1113 708 -1210 28 -47 57 -98 66 -113 9 -16 21 -36 26 -46 6 -9 31
-53 58 -97 l47 -82 -61 -103 c-34 -57 -70 -119 -81 -137 -10 -19 -45 -77 -76
-130 -32 -53 -71 -119 -88 -147 -16 -27 -33 -58 -39 -67 -5 -9 -24 -40 -41
-70 -17 -29 -68 -116 -114 -193 -46 -77 -96 -162 -112 -190 -15 -27 -79 -135
-142 -240 -62 -104 -111 -193 -110 -196 6 -11 251 -99 377 -134 119 -34 276
-71 345 -80 20 -3 46 -8 58 -10 11 -2 45 -7 75 -11 30 -3 65 -7 79 -10 133
-22 593 -22 720 0 14 3 72 12 130 20 58 9 114 18 125 20 11 2 54 11 95 20 488
102 1043 374 1404 688 l31 26 -567 -1 -567 -2 -98 170 c-54 94 -106 186 -117
205 -10 19 -27 47 -37 62 -11 14 -19 29 -19 32 0 3 -14 29 -31 58 -18 29 -40
68 -50 86 -11 18 -79 137 -153 265 -73 128 -239 417 -368 642 -130 226 -265
461 -302 524 -36 62 -66 115 -66 116 0 2 -21 39 -46 82 -26 43 -66 112 -89
153 -23 41 -99 174 -169 295 -71 121 -138 238 -150 260 -13 22 -119 207 -236
410 -117 204 -221 385 -231 403 -25 43 -24 52 10 109 28 44 838 1433 883 1513
11 19 76 131 144 247 68 117 124 215 124 218 0 6 -248 3 -254 -2z"/>
<path d="M3550 6807 c0 -3 41 -76 91 -163 51 -88 100 -172 109 -189 10 -16 55
-95 102 -175 46 -80 87 -152 91 -160 4 -8 15 -28 26 -45 10 -16 28 -47 40 -68
16 -29 413 -718 528 -915 10 -18 73 -127 141 -244 67 -117 129 -224 137 -238
32 -55 293 -508 317 -550 14 -25 218 -378 453 -785 235 -407 440 -762 456
-790 15 -27 71 -124 123 -215 53 -91 128 -222 168 -291 l72 -127 19 31 c108
177 268 583 317 802 7 28 13 57 15 65 29 126 55 279 72 430 11 102 9 526 -3
640 -75 683 -327 1280 -762 1803 -113 135 -305 326 -431 427 -24 19 -48 40
-55 45 -52 46 -236 172 -366 252 -274 166 -688 327 -1010 392 -92 19 -103 21
-150 27 -25 3 -52 7 -60 9 -8 3 -42 7 -75 10 -33 4 -78 8 -100 11 -61 7 -265
15 -265 11z"/>
</g>
</svg>
